04/04/2020 11:47:33 devpinoyLogger Google Chrome Launched!!
04/04/2020 11:47:36 devpinoyLogger Navigated to: https://surfweb.staging.travel.theculturetrip.com/ctweb/
04/04/2020 11:47:41 devpinoyLogger Window Maximised
04/04/2020 11:47:41 devpinoyLogger Inside Login Test
04/04/2020 11:47:41 devpinoyLogger Detination Entered
04/04/2020 11:47:42 devpinoyLogger Hotel ID Entered
04/04/2020 11:47:42 devpinoyLogger From Date Enetered
04/04/2020 11:47:45 devpinoyLogger To Date Enetered
04/04/2020 11:47:48 devpinoyLogger Pax Combination Enetered
04/04/2020 11:48:16 devpinoyLogger Submit Button Clikced
04/04/2020 11:48:16 devpinoyLogger Hotel Search successfully Exceuted with Refundability
04/04/2020 11:48:16 devpinoyLogger Firsn Name Entered
04/04/2020 11:48:16 devpinoyLogger Last Name Entered
04/04/2020 11:48:16 devpinoyLogger Email Entered
04/04/2020 11:48:17 devpinoyLogger Telephone Number Entered
04/04/2020 11:48:22 devpinoyLogger Sumbit Button Entered Entered
04/04/2020 11:48:37 devpinoyLogger Navigated to the payment page
04/04/2020 11:48:39 devpinoyLogger Test Execution Completed!!
